<?xml version="1.0" encoding="UTF-8" standalone="no"?>
<!-- Created with Inkscape (http://www.inkscape.org/) -->

<svg
   width="130.3483mm"
   height="53.404556mm"
   viewBox="0 0 130.3483 53.404556"
   version="1.1"
   id="svg5"
   xml:space="preserve"
   xmlns:inkscape="http://www.inkscape.org/namespaces/inkscape"
   xmlns:sodipodi="http://sodipodi.sourceforge.net/DTD/sodipodi-0.dtd"
   xmlns="http://www.w3.org/2000/svg"
   xmlns:svg="http://www.w3.org/2000/svg"><sodipodi:namedview
     id="namedview7"
     pagecolor="#ffffff"
     bordercolor="#666666"
     borderopacity="1.0"
     inkscape:showpageshadow="2"
     inkscape:pageopacity="0.0"
     inkscape:pagecheckerboard="0"
     inkscape:deskcolor="#d1d1d1"
     inkscape:document-units="mm"
     showgrid="false" /><defs
     id="defs2" /><path
     id="path2301"
     style="fill:#007fc4;stroke-width:4.0124"
     d="m 93.149628,53.404678 h 16.204362 c 7.03214,0 11.92396,-0.509583 15.79676,-3.974663 3.36314,-3.057433 5.19755,-7.541653 5.19755,-12.535451 0,-6.420589 -3.05748,-10.395256 -9.17232,-12.331629 4.58623,-2.344067 6.62451,-5.809112 6.62451,-11.414398 0,-8.3569705 -5.60532,-13.14693856 -16.51006,-13.14693856 H 93.149628 Z M 105.6851,42.194102 v -11.21057 h 4.1786 c 5.1974,0 7.54152,1.121063 7.54152,5.707184 0,4.280426 -2.34412,5.503386 -7.23585,5.503386 z m 0,-21.401984 v -9.579939 h 4.28038 c 4.0765,0 6.01299,1.528711 6.01299,4.993782 0,3.465098 -2.24217,4.586157 -7.13399,4.586157 z M 73.582093,27.211901 91.111361,0 H 76.639529 L 60.944722,25.173617 V 0 H 47.797787 V 53.404678 H 60.944722 V 30.26933 L 74.906996,53.404678 H 90.601795 Z M 20.077104,53.404678 c 7.439745,0 12.535466,-1.121062 18.140752,-6.624442 5.197609,-4.993796 7.745466,-11.720137 7.745466,-19.771365 0,-8.764634 -2.649766,-15.796692 -7.745466,-20.5866655 C 32.61257,1.1226569 26.70153,0.00159844 18.242642,0.00159844 H 0 V 53.404678 Z M 18.344566,41.684529 h -5.29955 V 11.517894 h 5.197626 c 9.57994,0 14.777611,5.401474 14.777611,14.981414 0,10.497165 -4.68809,15.185221 -14.675687,15.185221 z" /></svg>
